…
#> Chain 1: Iteration: 600 / 1000 [ 60%]  (Sampling)
#> Chain 1: Iteration: 700 / 1000 [ 70%]  (Sampling)
#> Chain 1: Iteration: 800 / 1000 [ 80%]  (Sampling)
#> Chain 1: Iteration: 900 / 1000 [ 90%]  (Sampling)
#> Chain 1: Iteration: 1000 / 1000 [100%]  (Sampling)
#> Chain 1: 
#> Chain 1:  Elapsed Time: 0.043 seconds (Warm-up)
#> Chain 1:                0.032 seconds (Sampling)
#> Chain 1:                0.075 seconds (Total)
#> Chain 1: 
#> $model_name
#> [1] "constant_single_ind"
#> 
#> $measurement_data
#> # A tibble: 135 × 5
#>    ind_id  time y_obs obs_index y_hat
#>     <dbl> <dbl> <dbl>     <dbl> <dbl>
#>  1      1  0       52         1  65.9
#>  2      1  1.91    60         2  71.8
#>  3      1  4.02    70         3  78.4
#>  4      1  6.04    80         4  84.7
#>  5      2  0       80         1  65.9
#>  6      2  1.90    85         2  71.8
#>  7      2  3.94    93         3  78.1
#>  8      2  5.96    94         4  84.4
#>  9      3  0       52         1  65.9
#> 10      3  2.03    65         2  72.2
#> # ℹ 125 more rows
…
