…
Let’s simulate some data to visualise the constant growth function.

### Simulate data

``` r
beta <- 2 #Annual growth rate
y_0 <- 1 #Starting size
time <- 0:20 
sizes_over_time <- tibble(Y_t = 1 + beta*time, #Linear sizes over time
                          t = time)

sizes_over_time
#> # A tibble: 21 × 2
#>      Y_t     t
#>    <dbl> <int>
#>  1     1     0
#>  2     3     1
#>  3     5     2
#>  4     7     3
#>  5     9     4
#>  6    11     5
#>  7    13     6
#>  8    15     7
#>  9    17     8
#> 10    19     9
#> # ℹ 11 more rows
```
…
In order to best reflect the survey data we took a stratified sample of
individuals grouped by the number of available observations. We have 25
fish with two observations, 15 with three, 10 with four, for a total
sample size of 50. This data is included with `hmde`

``` r
Trout_Size_Data
#> # A tibble: 135 × 4
#>    ind_id  time y_obs obs_index
#>     <dbl> <dbl> <dbl>     <dbl>
#>  1      1  0       52         1
#>  2      1  1.91    60         2
#>  3      1  4.02    70         3
#>  4      1  6.04    80         4
#>  5      2  0       80         1
#>  6      2  1.90    85         2
#>  7      2  3.94    93         3
#>  8      2  5.96    94         4
#>  9      3  0       52         1
#> 10      3  2.03    65         2
#> # ℹ 125 more rows
```
…
``` r
Trout_Size_Data_transformed <- Trout_Size_Data %>%
  group_by(ind_id) %>%
  mutate(
    delta_y_obs = y_obs - lag(y_obs),
    obs_interval = time - lag(time),
    obs_growth_rate = delta_y_obs/obs_interval
  ) %>%
  ungroup()

Trout_Size_Data_transformed
#> # A tibble: 135 × 7
#>    ind_id  time y_obs obs_index delta_y_obs obs_interval obs_growth_rate
#>     <dbl> <dbl> <dbl>     <dbl>       <dbl>        <dbl>           <dbl>
#>  1      1  0       52         1          NA        NA             NA    
#>  2      1  1.91    60         2           8         1.91           4.18 
#>  3      1  4.02    70         3          10         2.11           4.75 
#>  4      1  6.04    80         4          10         2.02           4.96 
#>  5      2  0       80         1          NA        NA             NA    
#>  6      2  1.90    85         2           5         1.90           2.64 
#>  7      2  3.94    93         3           8         2.04           3.92 
#>  8      2  5.96    94         4           1         2.03           0.494
#>  9      3  0       52         1          NA        NA             NA    
#> 10      3  2.03    65         2          13         2.03           6.42 
#> # ℹ 125 more rows
```
…
