Case study 1: Constant growth with SUSTAIN Trout data • hmde
…
In order to best reflect the survey data we took a stratified sample
of individuals grouped by the number of available observations. We have
25 fish with two observations, 15 with three, 10 with four, for a total
sample size of 50. This data is included with hmde

Trout_Size_Data
#> # A tibble: 135 × 4
#>    ind_id  time y_obs obs_index
#>     <dbl> <dbl> <dbl>     <dbl>
#>  1      1  0       52         1
#>  2      1  1.91    60         2
#>  3      1  4.02    70         3
#>  4      1  6.04    80         4
#>  5      2  0       80         1
#>  6      2  1.90    85         2
#>  7      2  3.94    93         3
#>  8      2  5.96    94         4
#>  9      3  0       52         1
#> 10      3  2.03    65         2
#> # ℹ 125 more rows
…
